…
Question 2. Traditional analyses of accelerometer data focus on the
total activity over the day. Using your tidied dataset, aggregate across
minutes to create a total activity variable for each day, and create a
table showing these totals. Are any trends apparent?

``` r
daily_accel = 
  accel_df %>%
    group_by(week, day_id) %>%
    summarize(daily_activity_cnt = sum(activity_cnt)) %>%
    arrange(week, day_id) 
daily_accel
## # A tibble: 35 × 3
## # Groups:   week [5]
##     week day_id daily_activity_cnt
##    <dbl>  <dbl>              <dbl>
##  1     1      1             78828.
##  2     1      2            307094.
##  3     1      3            340115.
##  4     1      4            355924.
##  5     1      5            480543.
##  6     1      6            376254 
##  7     1      7            631105 
##  8     2      8            295431 
##  9     2      9            423245 
## 10     2     10            440962 
## # … with 25 more rows
```
…
